<?xml version="1.0" encoding="utf-8"?>
<!-- Generator: Adobe Illustrator 26.0.0, SVG Export Plug-In . SVG Version: 6.00 Build 0)  -->
<svg version="1.1" id="Layer_1" xmlns="http://www.w3.org/2000/svg" xmlns:xlink="http://www.w3.org/1999/xlink" x="0px" y="0px"
	 viewBox="0 0 703.3 339.6" style="enable-background:new 0 0 703.3 339.6;" xml:space="preserve">
<style type="text/css">
	.st0{filter:url(#Adobe_OpacityMaskFilter);}
	.st1{mask:url(#SVGID_1_);fill:#E62F2D;}
	.st2{fill:#FFFFFF;}
</style>
<defs>
	<filter id="Adobe_OpacityMaskFilter" filterUnits="userSpaceOnUse" x="26.1" y="243.7" width="650.5" height="83">
		
			<feColorMatrix  type="matrix" values="-1 0 0 0 1  0 -1 0 0 1  0 0 -1 0 1  0 0 0 1 0" color-interpolation-filters="sRGB" result="source"/>
		<feFlood  style="flood-color:white;flood-opacity:1" result="back"/>
		<feBlend  in="source" in2="back" mode="normal"/>
	</filter>
</defs>
<mask maskUnits="userSpaceOnUse" x="26.1" y="243.7" width="650.5" height="83" id="SVGID_1_">
	<g class="st0">
		<path d="M674.8,246.4h-20.2l-14.8,30l-14.8-30h-20.2l26.1,47.8V324h17.8v-29.8L674.8,246.4z M568,295.2l9.1-28.5l9.1,28.5H568z
			 M595.4,324h19.4l-26.4-77.7h-22.6L539.4,324h19.4l3.9-12.2h28.8L595.4,324z M455.6,324h20.2l12.6-45.8l12.6,45.8h20.2l21.4-77.7
			h-18.6l-13.4,54.4l-15-54.4h-14.4l-15,54.4l-13.4-54.4h-18.6L455.6,324z M371,306.9v-13.8h27.7v-16.9H371v-12.9h30.5v-17.1h-48.3
			V324H402v-17.1H371z M322.1,246.4v29.7h-24.4v-29.7H280V324h17.8v-30.8h24.4V324h17.8v-77.7H322.1z M272.2,246.4h-57.7v17.1h20
			V324h17.8v-60.6h20V246.4z M161.2,246.4v42.2l-30-42.2H118V324h17.8v-42.2l30,42.2H179v-77.7H161.2z M67.6,308.3
			c-12.6,0-22.6-9.2-22.6-23.1c0-13.9,10-23.1,22.6-23.1c12.6,0,22.6,9.2,22.6,23.1C90.2,299.1,80.2,308.3,67.6,308.3z M67.6,325.6
			c22.3,0,40.4-17.5,40.4-40.4s-18.1-40.4-40.4-40.4s-40.4,17.5-40.4,40.4S45.3,325.6,67.6,325.6z"/>
	</g>
</mask>
<path class="st1" d="M649.6,294.7l26.1-47.8l-1.9-1.1l-26.1,47.8L649.6,294.7z M649.8,324v-29.8h-2.2V324H649.8z M630.9,325.1h17.8
	v-2.2h-17.8V325.1z M629.8,294.2V324h2.2v-29.8H629.8z M603.9,246.9l26.1,47.8l1.9-1.1l-26.1-47.8L603.9,246.9z M625,245.2h-20.2
	v2.2H625V245.2z M640.8,275.8l-14.8-30l-2,1l14.8,30L640.8,275.8z M653.6,245.9l-14.8,30l2,1l14.8-30L653.6,245.9z M674.8,245.2
	h-20.2v2.2h20.2V245.2z M648.7,294.2l-1-0.5l-0.1,0.2v0.3H648.7z M648.7,324v1.1h1.1V324H648.7z M630.9,324h-1.1v1.1h1.1V324z
	 M630.9,294.2h1.1v-0.3l-0.1-0.2L630.9,294.2z M604.9,246.4v-1.1H603l0.9,1.6L604.9,246.4z M625,246.4l1-0.5l-0.3-0.6H625V246.4z
	 M639.8,276.3l-1,0.5l1,2l1-2L639.8,276.3z M654.6,246.4v-1.1h-0.7l-0.3,0.6L654.6,246.4z M674.8,246.4l1,0.5l0.9-1.6h-1.9V246.4z
	 M586.2,294.1H568v2.2h18.2V294.1z M576.1,267l9.1,28.5l2.1-0.7l-9.1-28.5L576.1,267z M569.1,295.5l9.1-28.5l-2.1-0.7l-9.1,28.5
	L569.1,295.5z M590.5,312.1l3.9,12.2l2.1-0.7l-3.9-12.2L590.5,312.1z M562.7,312.9h28.8v-2.2h-28.8V312.9z M559.9,324.4l3.9-12.2
	l-2.1-0.7l-3.9,12.2L559.9,324.4z M539.4,325.1h19.4v-2.2h-19.4V325.1z M564.8,246l-26.4,77.7l2.1,0.7l26.4-77.7L564.8,246z
	 M588.5,245.2h-22.6v2.2h22.6V245.2z M615.9,323.7L589.5,246l-2.1,0.7l26.4,77.7L615.9,323.7z M595.4,325.1h19.4v-2.2h-19.4V325.1z
	 M586.2,295.2v1.1h1.5l-0.5-1.4L586.2,295.2z M577.1,266.7l1.1-0.3l-1.1-3.3l-1.1,3.3L577.1,266.7z M568,295.2l-1.1-0.3l-0.5,1.4
	h1.5V295.2z M591.6,311.8l1.1-0.3l-0.2-0.8h-0.8V311.8z M562.7,311.8v-1.1h-0.8l-0.2,0.8L562.7,311.8z M558.8,324v1.1h0.8l0.2-0.8
	L558.8,324z M539.4,324l-1-0.4l-0.5,1.5h1.5V324z M565.8,246.4v-1.1H565l-0.3,0.7L565.8,246.4z M588.5,246.4l1-0.4l-0.3-0.7h-0.8
	V246.4z M614.9,324v1.1h1.5l-0.5-1.5L614.9,324z M595.4,324l-1.1,0.3l0.2,0.8h0.8V324z M433.2,246.6l21.4,77.7l2.1-0.6l-21.4-77.7
	L433.2,246.6z M452.9,245.2h-18.6v2.2h18.6V245.2z M467.4,300.5l-13.4-54.4l-2.1,0.5l13.4,54.4L467.4,300.5z M480.2,246.1l-15,54.4
	l2.1,0.6l15-54.4L480.2,246.1z M495.7,245.2h-14.4v2.2h14.4V245.2z M511.7,300.4l-15-54.4l-2.1,0.6l15,54.4L511.7,300.4z M523,246.1
	l-13.4,54.4l2.1,0.5l13.4-54.4L523,246.1z M542.7,245.2h-18.6v2.2h18.6V245.2z M522.4,324.3l21.4-77.7l-2.1-0.6l-21.4,77.7
	L522.4,324.3z M501.1,325.1h20.2v-2.2h-20.2V325.1z M487.4,278.5l12.6,45.8l2.1-0.6l-12.6-45.8L487.4,278.5z M476.9,324.3l12.6-45.8
	l-2.1-0.6l-12.6,45.8L476.9,324.3z M455.6,325.1h20.2v-2.2h-20.2V325.1z M434.2,246.4v-1.1h-1.5l0.4,1.4L434.2,246.4z M452.9,246.4
	l1.1-0.3l-0.2-0.8h-0.9V246.4z M466.3,300.7l-1.1,0.3l1,4.1l1.1-4.1L466.3,300.7z M481.3,246.4v-1.1h-0.8l-0.2,0.8L481.3,246.4z
	 M495.7,246.4l1.1-0.3l-0.2-0.8h-0.8V246.4z M510.7,300.7l-1.1,0.3l1.1,4.1l1-4.1L510.7,300.7z M524.1,246.4v-1.1h-0.9l-0.2,0.8
	L524.1,246.4z M542.7,246.4l1.1,0.3l0.4-1.4h-1.5V246.4z M521.3,324v1.1h0.8l0.2-0.8L521.3,324z M501.1,324l-1.1,0.3l0.2,0.8h0.8
	V324z M488.5,278.2l1.1-0.3l-1.1-3.9l-1.1,3.9L488.5,278.2z M475.8,324v1.1h0.8l0.2-0.8L475.8,324z M455.6,324l-1.1,0.3l0.2,0.8h0.8
	V324z M402,305.8H371v2.2H402V305.8z M403.1,324v-17.1h-2.2V324H403.1z M353.2,325.1H402v-2.2h-48.8V325.1z M352.1,246.4V324h2.2
	v-77.7H352.1z M401.5,245.2h-48.3v2.2h48.3V245.2z M402.6,263.4v-17.1h-2.2v17.1H402.6z M371,264.5h30.5v-2.2H371V264.5z
	 M372.1,276.3v-12.9h-2.2v12.9H372.1z M398.7,275.2H371v2.2h27.7V275.2z M399.8,293.2v-16.9h-2.2v16.9H399.8z M371,294.3h27.7v-2.2
	H371V294.3z M372.1,306.9v-13.8h-2.2v13.8H372.1z M402,306.9h1.1v-1.1H402V306.9z M402,324v1.1h1.1V324H402z M353.2,324h-1.1v1.1
	h1.1V324z M353.2,246.4v-1.1h-1.1v1.1H353.2z M401.5,246.4h1.1v-1.1h-1.1V246.4z M401.5,263.4v1.1h1.1v-1.1H401.5z M371,263.4v-1.1
	h-1.1v1.1H371z M371,276.3h-1.1v1.1h1.1V276.3z M398.7,276.3h1.1v-1.1h-1.1V276.3z M398.7,293.2v1.1h1.1v-1.1H398.7z M371,293.2
	v-1.1h-1.1v1.1H371z M371,306.9h-1.1v1.1h1.1V306.9z M339.9,245.2h-17.8v2.2h17.8V245.2z M341,324v-77.7h-2.2V324H341z M322.1,325.1
	h17.8v-2.2h-17.8V325.1z M321,293.2V324h2.2v-30.8H321z M297.7,294.3h24.4v-2.2h-24.4V294.3z M298.8,324v-30.8h-2.2V324H298.8z
	 M280,325.1h17.8v-2.2H280V325.1z M278.9,246.4V324h2.2v-77.7H278.9z M297.7,245.2H280v2.2h17.8V245.2z M298.8,276.1v-29.7h-2.2
	v29.7H298.8z M322.1,275h-24.4v2.2h24.4V275z M321,246.4v29.7h2.2v-29.7H321z M339.9,246.4h1.1v-1.1h-1.1V246.4z M339.9,324v1.1h1.1
	V324H339.9z M322.1,324H321v1.1h1.1V324z M322.1,293.2h1.1v-1.1h-1.1V293.2z M297.7,293.2v-1.1h-1.1v1.1H297.7z M297.7,324v1.1h1.1
	V324H297.7z M280,324h-1.1v1.1h1.1V324z M280,246.4v-1.1h-1.1v1.1H280z M297.7,246.4h1.1v-1.1h-1.1V246.4z M297.7,276.1h-1.1v1.1
	h1.1V276.1z M322.1,276.1v1.1h1.1v-1.1H322.1z M322.1,246.4v-1.1H321v1.1H322.1z M273.3,263.4v-17.1h-2.2v17.1H273.3z M252.2,264.5
	h20v-2.2h-20V264.5z M253.3,324v-60.6h-2.2V324H253.3z M234.5,325.1h17.8v-2.2h-17.8V325.1z M233.4,263.4V324h2.2v-60.6H233.4z
	 M214.5,264.5h20v-2.2h-20V264.5z M213.4,246.4v17.1h2.2v-17.1H213.4z M272.2,245.2h-57.7v2.2h57.7V245.2z M272.2,263.4v1.1h1.1
	v-1.1H272.2z M252.2,263.4v-1.1h-1.1v1.1H252.2z M252.2,324v1.1h1.1V324H252.2z M234.5,324h-1.1v1.1h1.1V324z M234.5,263.4h1.1v-1.1
	h-1.1V263.4z M214.5,263.4h-1.1v1.1h1.1V263.4z M214.5,246.4v-1.1h-1.1v1.1H214.5z M272.2,246.4h1.1v-1.1h-1.1V246.4z M179,245.2
	h-17.8v2.2H179V245.2z M180.1,324v-77.7h-2.2V324H180.1z M165.7,325.1H179v-2.2h-13.3V325.1z M134.8,282.5l30,42.2l1.8-1.3l-30-42.2
	L134.8,282.5z M136.8,324v-42.2h-2.2V324H136.8z M118,325.1h17.8v-2.2H118V325.1z M116.9,246.4V324h2.2v-77.7H116.9z M131.3,245.2
	H118v2.2h13.3V245.2z M162.1,287.9l-30-42.2l-1.8,1.3l30,42.2L162.1,287.9z M160.1,246.4v42.2h2.2v-42.2H160.1z M179,246.4h1.1v-1.1
	H179V246.4z M179,324v1.1h1.1V324H179z M165.7,324l-0.9,0.6l0.3,0.5h0.6V324z M135.7,281.9l0.9-0.6l-2-2.8v3.5H135.7z M135.7,324
	v1.1h1.1V324H135.7z M118,324h-1.1v1.1h1.1V324z M118,246.4v-1.1h-1.1v1.1H118z M131.3,246.4l0.9-0.6l-0.3-0.5h-0.6V246.4z
	 M161.2,288.5l-0.9,0.6l2,2.8v-3.5H161.2z M161.2,246.4v-1.1h-1.1v1.1H161.2z M89.1,285.2c0,13.2-9.5,22-21.5,22v2.2
	c13.2,0,23.7-9.7,23.7-24.2H89.1z M67.6,263.2c12,0,21.5,8.7,21.5,22h2.2c0-14.5-10.5-24.2-23.7-24.2V263.2z M46.1,285.2
	c0-13.2,9.5-22,21.5-22V261c-13.2,0-23.7,9.7-23.7,24.2H46.1z M67.6,307.2c-12,0-21.5-8.7-21.5-22h-2.2c0,14.5,10.5,24.2,23.7,24.2
	V307.2z M26.1,285.2c0,23.5,18.6,41.5,41.5,41.5v-2.2c-21.7,0-39.3-17-39.3-39.3H26.1z M67.6,243.7c-22.9,0-41.5,18-41.5,41.5h2.2
	c0-22.2,17.6-39.3,39.3-39.3V243.7z M109.1,285.2c0-23.5-18.6-41.5-41.5-41.5v2.2c21.7,0,39.3,17,39.3,39.3H109.1z M67.6,326.7
	c22.9,0,41.5-18,41.5-41.5h-2.2c0,22.2-17.6,39.3-39.3,39.3V326.7z"/>
<path class="st2" d="M654.3,220c15.8,0,27.1-8.3,27.1-22.4c0-15.4-12.4-19.3-23.4-22.6c-11.3-3.4-13.1-5.7-13.1-9.1
	c0-2.9,2.6-5.5,7.8-5.5c6.7,0,10.1,3.2,12.6,8.4l14.1-8.2c-5.3-10.7-14.7-16.4-26.7-16.4c-12.6,0-24.5,8.1-24.5,22.2
	c0,14,10.6,19.2,21.4,22.2c10.9,3,15.1,4.8,15.1,9.3c0,2.8-2,5.9-9.9,5.9c-8.2,0-12.7-4.1-15.3-10.1l-14.4,8.3
	C629.2,212.7,639,220,654.3,220z M600.6,145.6v72.9h16.7v-72.9H600.6z M565.2,177.9h-36.5v14.6h19.5c-2.6,7-9,11.2-18.6,11.2
	c-14.2,0-22.9-9.1-22.9-21.4c0-12.8,9.2-21.9,21.4-21.9c8.2,0,14.8,3.7,17.8,8.5l14.2-8.1c-6.1-9.8-17.9-16.7-31.9-16.7
	c-21.4,0-38.2,16.9-38.2,38c0,20.9,16.4,37.8,39.4,37.8c20.4,0,35.9-13.5,35.9-35.8V177.9z M463.9,145.6v39.6l-28.1-39.6h-12.5v72.9
	H440V179l28.1,39.6h12.5v-72.9H463.9z M394.1,145.6v72.9h16.7v-72.9H394.1z M365,145.6v39.6l-28.1-39.6h-12.5v72.9h16.7V179
	l28.1,39.6h12.5v-72.9H365z M317.1,145.6H263v16h18.7v56.8h16.7v-56.8h18.7V145.6z M239,145.6v27.9h-22.9v-27.9h-16.7v72.9h16.7
	v-28.9H239v28.9h16.7v-72.9H239z M190.1,177.9h-36.5v14.6H173c-2.6,7-9,11.2-18.6,11.2c-14.2,0-22.9-9.1-22.9-21.4
	c0-12.8,9.2-21.9,21.4-21.9c8.2,0,14.8,3.7,17.8,8.5l14.2-8.1c-6.1-9.8-17.9-16.7-31.9-16.7c-21.4,0-38.2,16.9-38.2,38
	c0,20.9,16.4,37.8,39.4,37.8c20.4,0,35.9-13.5,35.9-35.8V177.9z M88.7,145.6v72.9h16.7v-72.9H88.7z M55.4,202.5v-56.8H38.7v72.9
	h42.7v-16H55.4z"/>
<path class="st2" d="M351.4,110.5c0-3.1,1.1-5.7,3.3-7.9c2.3-2.1,5-3.2,8.1-3.2c2.5,0,4.5,0.6,5.9,1.9s2.1,3,2.1,5.3
	c0,1.9-0.5,3.7-1.5,5.4c-1,1.6-2.4,3-4.2,4c-1.7,1-3.6,1.5-5.7,1.5c-2.4,0-4.3-0.6-5.7-1.9C352.1,114.4,351.4,112.7,351.4,110.5z
	 M362.5,92.6c1.6-6.1,2.6-12.1,3.2-17.9c0.6-5.9,1.1-11.6,1.3-17c0.3-5.5,0.7-10.5,1.2-15.1c0.1-2,0.4-4.1,0.8-6.3s1.2-4.2,2.1-6
	c0.9-1.8,2.1-3.2,3.6-4.3c1.5-1.1,3.4-1.6,5.6-1.6c2.7,0,4.8,0.8,6.1,2.5c1.4,1.6,2,3.9,1.8,6.9c-0.4,3.7-1.5,7.7-3.3,12.2
	c-1.8,4.4-4,9.1-6.6,14.1c-2.5,5-5,10.3-7.5,15.8c-2.5,5.5-4.6,11.2-6.2,17.2L362.5,92.6z M314.5,110.5c0-3.1,1.1-5.7,3.3-7.9
	c2.3-2.1,5-3.2,8.1-3.2c2.5,0,4.5,0.6,5.9,1.9s2.1,3,2.1,5.3c0,1.9-0.5,3.7-1.5,5.4c-1,1.6-2.4,3-4.2,4c-1.7,1-3.6,1.5-5.7,1.5
	c-2.4,0-4.3-0.6-5.7-1.9C315.2,114.4,314.5,112.7,314.5,110.5z M325.7,92.6c1.6-6.1,2.6-12.1,3.2-17.9c0.6-5.9,1.1-11.6,1.3-17
	c0.3-5.5,0.7-10.5,1.2-15.1c0.1-2,0.4-4.1,0.8-6.3s1.2-4.2,2.1-6c0.9-1.8,2.1-3.2,3.6-4.3c1.5-1.1,3.4-1.6,5.6-1.6
	c2.7,0,4.8,0.8,6.1,2.5c1.4,1.6,2,3.9,1.8,6.9c-0.4,3.7-1.5,7.7-3.3,12.2c-1.8,4.4-4,9.1-6.6,14.1c-2.5,5-5,10.3-7.5,15.8
	c-2.5,5.5-4.6,11.2-6.2,17.2L325.7,92.6z M251.1,98.2c0-3.6,0.5-7.4,1.4-11.5c1-4.1,2.5-8,4.6-12c2-3.9,4.5-7.4,7.5-10.5
	c3-3.2,6.6-5.7,10.7-7.6c4.1-2,8.7-2.9,13.8-2.9c6,0,10.7,1.6,13.9,4.9c3.4,3.3,5,8.1,5,14.4c0,3.6-0.5,7.4-1.5,11.5
	c-0.9,4.1-2.4,8-4.5,12c-2,3.9-4.6,7.5-7.6,10.7c-3,3.1-6.5,5.7-10.7,7.6c-4.1,1.9-8.6,2.8-13.7,2.8c-6,0-10.7-1.6-14.1-4.9
	C252.7,109.4,251.1,104.6,251.1,98.2z M288.5,56c-1.8,0-3.7,1.1-5.7,3.3c-2,2.1-3.9,5-5.9,8.6c-1.9,3.6-3.6,7.6-5.2,12.1
	c-1.5,4.5-2.7,9.1-3.6,13.8c-0.9,4.7-1.3,9.2-1.3,13.5c0,2.8,0.3,4.8,0.9,6.1c0.7,1.2,1.7,1.9,3,1.9c1.8,0,3.7-1,5.6-3
	c2-2.1,3.9-4.9,5.7-8.4c1.9-3.5,3.6-7.5,5-11.8c1.6-4.5,2.8-9.1,3.7-13.8c0.9-4.8,1.4-9.4,1.4-13.8c0-3.3-0.4-5.5-1.1-6.6
	C290.7,56.6,289.7,56,288.5,56z M231.2,106c-0.5,2-0.6,3.5-0.2,4.5c0.5,0.9,1.2,1.4,2.2,1.4c0.9,0,1.9-0.5,3.2-1.6
	c1.2-1.2,2.5-3.7,3.9-7.6l2.1-5.6h2.2l-2.9,8.6c-1.1,3.2-2.5,5.7-4.2,7.4c-1.7,1.7-3.6,2.9-5.5,3.6c-2,0.7-3.9,1.1-5.9,1.1
	c-2.6,0-4.6-0.5-6.2-1.4c-1.6-0.9-2.7-2.1-3.5-3.7c-0.7-1.7-1-3.7-0.9-6c0.2-2.3,0.6-4.8,1.4-7.5l18.4-61.2c0.8-2.7,0.7-4.6-0.2-5.9
	c-0.9-1.2-3.3-1.9-7.1-1.9l0.8-2.5c5.6-0.1,10.5-0.5,14.8-1.3c4.3-0.9,8.4-2,12.4-3.5L231.2,106z M196.1,106c-0.5,2-0.6,3.5-0.2,4.5
	c0.5,0.9,1.2,1.4,2.2,1.4c0.9,0,1.9-0.5,3.2-1.6c1.2-1.2,2.5-3.7,3.9-7.6l2.1-5.6h2.2l-2.9,8.6c-1.1,3.2-2.5,5.7-4.2,7.4
	c-1.7,1.7-3.6,2.9-5.5,3.6c-2,0.7-3.9,1.1-5.9,1.1c-2.6,0-4.6-0.5-6.2-1.4c-1.6-0.9-2.7-2.1-3.5-3.7c-0.7-1.7-1-3.7-0.9-6
	c0.2-2.3,0.6-4.8,1.4-7.5l18.4-61.2c0.8-2.7,0.7-4.6-0.2-5.9c-0.9-1.2-3.3-1.9-7.1-1.9l0.8-2.5c5.6-0.1,10.5-0.5,14.8-1.3
	c4.3-0.9,8.4-2,12.4-3.5L196.1,106z M139.9,90.5c3.2-1.2,6.2-2.7,9.1-4.2s5.4-3.3,7.4-5.2c3-2.7,5.5-5.9,7.3-9.5
	c1.9-3.7,2.8-7.6,2.8-11.8c0-1.6-0.2-2.6-0.5-3c-0.3-0.5-0.8-0.8-1.4-0.8c-1.7,0-3.6,0.9-5.6,2.7c-2,1.7-3.9,4.1-5.9,7
	c-2,2.9-3.7,6.2-5.4,10c-1.6,3.7-2.9,7.7-3.9,11.7c-0.9,4.1-1.4,8-1.4,11.8c0,4.4,0.8,7.4,2.5,9c1.7,1.6,3.9,2.3,6.6,2.3
	c2.1,0,4.7-0.7,7.9-2.1c3.1-1.4,6.2-3.9,9.3-7.5l1.9,0.9c-1.6,2.6-3.8,5.1-6.4,7.5c-2.7,2.4-5.7,4.4-9.3,6
	c-3.5,1.5-7.3,2.2-11.5,2.2c-3.5,0-6.7-0.6-9.5-1.9c-2.7-1.2-4.9-3.1-6.6-5.5c-1.6-2.5-2.3-5.5-2.3-9.1c0-4.1,0.7-8.4,2-12.8
	c1.4-4.4,3.4-8.6,5.9-12.7c2.5-4.1,5.5-7.9,9-11.1c3.5-3.4,7.4-6,11.7-7.9c4.3-2,8.9-2.9,13.7-2.9c3.4,0,6.3,0.8,8.7,2.3
	c2.3,1.5,3.5,3.8,3.5,6.9c0,3-0.9,5.9-2.6,8.6c-1.6,2.7-3.9,5.1-6.7,7.3s-6,4.1-9.5,5.9c-3.4,1.7-7,3.2-10.7,4.5
	c-3.6,1.2-7,2.2-10.2,2.9L139.9,90.5z M57.2,103.5c-0.7,2.8-1,4.9-0.9,6.3c0.1,1.4,0.7,2.3,2,2.8s3.2,0.8,5.9,0.9l-0.5,2.3
	c-2.2-0.2-5-0.2-8.3-0.2c-3.3-0.1-6.6-0.1-10.1-0.1c-3.9,0-7.5,0-10.9,0.1c-3.4,0-6.1,0.1-8.2,0.2l0.6-2.3c2.6-0.2,4.6-0.5,6-0.9
	c1.5-0.5,2.7-1.4,3.5-2.8c0.9-1.4,1.6-3.5,2.3-6.3L54,45.4c0.8-2.9,1.1-5,0.9-6.3c-0.2-1.4-0.9-2.3-2.1-2.8
	c-1.2-0.5-3.1-0.9-5.7-0.9l0.6-2.3c2,0.1,4.6,0.2,8.1,0.2c3.4,0.1,7.1,0.1,11,0.1c3.4,0,6.8,0,10-0.1c3.3-0.1,6.1-0.2,8.6-0.2
	l-0.6,2.3c-2.7,0.1-4.7,0.4-6.2,0.9c-1.5,0.5-2.7,1.4-3.5,2.8c-0.8,1.3-1.6,3.4-2.3,6.3L57.2,103.5z M103.2,45.4
	c0.8-2.9,1.1-5,0.9-6.3c-0.1-1.4-0.7-2.3-2-2.8c-1.2-0.5-3.2-0.9-5.9-0.9l0.6-2.3c2.1,0.1,4.8,0.2,8.2,0.2c3.4,0.1,6.7,0.1,10.1,0.1
	c3.8,0,7.5,0,10.9-0.1c3.4-0.1,6.2-0.2,8.4-0.2l-0.6,2.3c-2.7,0.1-4.7,0.4-6.2,0.9c-1.5,0.5-2.7,1.4-3.5,2.8
	c-0.8,1.3-1.6,3.4-2.3,6.3l-15.5,58.1c-0.7,2.8-1,4.9-0.9,6.3c0.1,1.4,0.7,2.3,2,2.8s3.2,0.8,5.9,0.9l-0.5,2.3
	c-2.1-0.2-4.9-0.2-8.3-0.2c-3.4-0.1-7.1-0.1-10.9-0.1c-3.4,0-6.8,0-10.2,0.1c-3.4,0-6.1,0.1-8.2,0.2l0.5-2.3
	c2.7-0.2,4.7-0.5,6.2-0.9c1.5-0.5,2.7-1.4,3.5-2.8c0.9-1.4,1.6-3.5,2.3-6.3L103.2,45.4z M58.9,75.4l0.8-2.3h41.4l-0.9,2.3H58.9z"/>
</svg>
